DACSS 601 Final Project
…
By filtering for students living in Spain and removing NAs for the
selected variables (7,921 NA observations were removed), the final
number of observations used for this analysis totals 28,022
students.

Show code

#read in csv

pisa <- read_csv("pisa_smaller_2022-2-20.csv")

pisa

# A tibble: 35,943 x 17
   CNT   ST001D01T ST004D01T ST197Q01HA ST197Q02HA ST197Q04HA
   <chr>     <dbl>     <dbl>      <dbl>      <dbl>      <dbl>
 1 ESP          10         2          4          4          4
 2 ESP           9         1          3          2          3
 3 ESP          10         2          4          3          3
 4 ESP           8         2          2          1          3
 5 ESP          10         1         NA         NA         NA
 6 ESP          10         1          4          2          3
 7 ESP           9         1         NA         NA         NA
 8 ESP           9         2          3          2          2
 9 ESP           9         2         NA         NA         NA
10 ESP          10         2          3          3          3
# ... with 35,933 more rows, and 11 more variables: ST197Q07HA <dbl>,
#   ST197Q08HA <dbl>, ST197Q09HA <dbl>, ST197Q12HA <dbl>,
#   ST220Q01HA <dbl>, ST220Q02HA <dbl>, ST220Q03HA <dbl>,
#   ST220Q04HA <dbl>, ST177Q01HA <dbl>, ST019AQ01T <dbl>,
#   ST021Q01TA <dbl>
…
mutate(language_self = recode(language_self, 
      `1` = "One", 
      `2` = "Two", 
      `3` = "Three", 
      `4` = "Four +"))

#examine

pisa_tidy

# A tibble: 28,022 x 9
   country informed_climate_change informed_global_h~ informed_migrat~
   <chr>   <chr>                   <chr>              <chr>           
 1 Spain   Well informed           Well informed      Well informed   
 2 Spain   Informed                Not well informed  Informed        
 3 Spain   Well informed           Informed           Informed        
 4 Spain   Not well informed       Not informed       Informed        
 5 Spain   Well informed           Not well informed  Informed        
 6 Spain   Informed                Not well informed  Not well inform~
 7 Spain   Informed                Informed           Informed        
 8 Spain   Not well informed       Not well informed  Informed        
 9 Spain   Not well informed       Informed           Informed        
10 Spain   Informed                Informed           Informed        
# ... with 28,012 more rows, and 5 more variables:
#   informed_international_conflict <chr>,
#   informed_world_hunger <chr>, informed_poverty_causes <chr>,
#   informed_gender_equality <chr>, language_self <chr>
…
getmode <- function(v) {
  uniqv <- unique(v)
  uniqv[which.max(tabulate(match(v, uniqv)))]
}

#create new object with mode

pisa_informed_mode <- pisa_tidy %>%
  rowwise() %>%
  mutate(informed_mode = getmode(c_across(starts_with("informed_")))) %>%
  select(c(language_self, informed_mode))

pisa_informed_mode

# A tibble: 28,022 x 2
# Rowwise: 
   language_self informed_mode    
   <chr>         <chr>            
 1 Three         Well informed    
 2 Three         Informed         
 3 Three         Informed         
 4 Two           Not well informed
 5 Four +        Well informed    
 6 Two           Not well informed
 7 Three         Informed         
 8 Three         Informed         
 9 Four +        Informed         
10 Three         Informed         
# ... with 28,012 more rows
…
Show code

#read in csv with modes

pisa_mode <- read_xlsx("pisa_mode_2022-4-8.xlsx") %>%
  select(c(language_self, mode, mode_2, mode_3))

pisa_mode

# A tibble: 28,022 x 4
   language_self mode              mode_2            mode_3  
   <chr>         <chr>             <chr>             <chr>   
 1 Three         Well informed     <NA>              <NA>    
 2 Three         Informed          <NA>              <NA>    
 3 Three         Informed          <NA>              <NA>    
 4 Four +        Not informed      Not well informed Informed
 5 Four +        Well informed     Informed          <NA>    
 6 Two           Not well informed <NA>              <NA>    
 7 Three         Informed          <NA>              <NA>    
 8 Three         Informed          <NA>              <NA>    
 9 Four +        Informed          <NA>              <NA>    
10 Three         Informed          <NA>              <NA>    
# ... with 28,012 more rows

Show code

#remove observations that have more than one mode; 2032 observations were removed

pisa_tidy_mode <-pisa_mode %>%
  filter(is.na(mode_2)) %>%
  select(c(language_self, mode))

pisa_tidy_mode

# A tibble: 25,990 x 2
   language_self mode             
   <chr>         <chr>            
 1 Three         Well informed    
 2 Three         Informed         
 3 Three         Informed         
 4 Two           Not well informed
 5 Three         Informed         
 6 Three         Informed         
 7 Four +        Informed         
 8 Three         Informed         
 9 Two           Informed         
10 Three         Informed         
# ... with 25,980 more rows
…
