HW5
…
#check work
 
pisa_smaller

#write csv

write_csv(pisa_smaller, "pisa_smaller_2022-2-20.csv")

#read in csv & examine data

pisa <- read_csv("pisa_smaller_2022-2-20.csv")

pisa

# A tibble: 35,943 x 17
   CNT   ST001D01T ST004D01T ST197Q01HA ST197Q02HA ST197Q04HA
   <chr>     <dbl>     <dbl>      <dbl>      <dbl>      <dbl>
 1 ESP          10         2          4          4          4
 2 ESP           9         1          3          2          3
 3 ESP          10         2          4          3          3
 4 ESP           8         2          2          1          3
 5 ESP          10         1         NA         NA         NA
 6 ESP          10         1          4          2          3
 7 ESP           9         1         NA         NA         NA
 8 ESP           9         2          3          2          2
 9 ESP           9         2         NA         NA         NA
10 ESP          10         2          3          3          3
# ... with 35,933 more rows, and 11 more variables: ST197Q07HA <dbl>,
#   ST197Q08HA <dbl>, ST197Q09HA <dbl>, ST197Q12HA <dbl>,
#   ST220Q01HA <dbl>, ST220Q02HA <dbl>, ST220Q03HA <dbl>,
#   ST220Q04HA <dbl>, ST177Q01HA <dbl>, ST019AQ01T <dbl>,
#   ST021Q01TA <dbl>
…
mutate(language_self = recode(language_self, 
      `1` = "One", 
      `2` = "Two", 
      `3` = "Three", 
      `4` = "Four +"))

#examine
  
pisa_tidy

# A tibble: 28,022 x 9
   country informed_climate_change informed_global_h~ informed_migrat~
   <chr>   <chr>                   <chr>              <chr>           
 1 Spain   Well informed           Well informed      Well informed   
 2 Spain   Informed                Not well informed  Informed        
 3 Spain   Well informed           Informed           Informed        
 4 Spain   Not well informed       Not informed       Informed        
 5 Spain   Well informed           Not well informed  Informed        
 6 Spain   Informed                Not well informed  Not well inform~
 7 Spain   Informed                Informed           Informed        
 8 Spain   Not well informed       Not well informed  Informed        
 9 Spain   Not well informed       Informed           Informed        
10 Spain   Informed                Informed           Informed        
# ... with 28,012 more rows, and 5 more variables:
#   informed_international_conflict <chr>,
#   informed_world_hunger <chr>, informed_poverty_causes <chr>,
#   informed_gender_equality <chr>, language_self <chr>
…
