Data Analytics and Computational Social Science: Homework 6: Working Draft
…
Here, I am visualizing the frequency of certain words within the discography and which ones appear the most. The small chunk of code at the top is being used to filter out articles such as I, a, the, etc. which are unimportant words in this research. We could reasonably conclude with no tidying at all that these articles and short words would appear the most frequently. I am interested in every word besides them.

Word Cloud: Another Visualization

A word cloud is a type of visualization that shows the frequency of words within a given set, with the most seen words appearing bigger in comparison to the words that are used the least.

Show code

select(tidy_tslyric, word)

# A tibble: 5,525 x 1
   word    
   <chr>   
 1 shined  
 2 georgia 
 3 stars   
 4 shame   
 5 night   
 6 chevy   
 7 truck   
 8 tendency
 9 gettin  
10 stuck   
# ... with 5,515 more rows
…
