HW5_IanKennedy
…
Because dplyr functions werent utilized within the above code chunks, the following chunk uses dplyr functions to measure a few meaningful values on a state-by-state basis.

#Calculate means, medians, and standard deviations of logged volumes by state
TPO_summary <- BF_plot %>%
  select(MILL_STATECD, MILL_STATE, MTC, TOT_MCF_LOG, TOT_BF_LOG) %>%
  group_by(MILL_STATE) %>%
  summarize(meanBF = mean(TOT_BF_LOG, na.rm = TRUE), 
            medianBF = median(TOT_BF_LOG, na.rm = TRUE), 
            meanMCF = mean(TOT_MCF_LOG, na.rm = TRUE), 
            medianMCF = median(TOT_MCF_LOG, na.rm = TRUE), 
            St_Dev = sd(TOT_BF_LOG, na.rm = TRUE), 
            NumberofMills = n()) 
TPO_summary

# A tibble: 24 x 7
   MILL_STATE meanBF medianBF meanMCF medianMCF St_Dev NumberofMills
   <chr>       <dbl>    <dbl>   <dbl>     <dbl>  <dbl>         <int>
 1 CT           5.59     5.44   1.79      1.64   0.820            22
 2 DE           5.10     4.80   1.30      1      1.01             15
 3 IA           4.94     4.55   1.14      0.749  1.11             70
 4 IL           4.78     4.46   0.980     0.660  1.06            136
 5 IN           5.76     6.16   1.96      2.36   1.18            147
 6 KS           4.58     4.30   0.782     0.500  0.991            48
 7 MA           4.59     4.00   0.790     0.199  0.906           120
 8 MD           5.51     5.67   1.70      1.87   1.38             43
 9 ME           5.60     4.81   1.80      1.01   1.28            162
10 MI           5.71     5.71   1.91      1.91   1.08            354
# ... with 14 more rows
…
