Data Analytics and Computational Social Science: HW4
…
mutate(informed_gender_equality = recode(informed_gender_equality, 
      `1` = "Not informed", 
      `2` = "Not well informed",
      `3` = "Informed", 
      `4` = "Well informed")) %>%
  
mutate(language_self = recode(language_self, `1` = "One", `2` = "Two", `3` = "Three", `4` = "Four or more"))
  
pisa_tidy

# A tibble: 28,022 x 9
   country informed_climate_change informed_global_h~ informed_migrat~
   <chr>   <chr>                   <chr>              <chr>           
 1 Spain   Well informed           Well informed      Well informed   
 2 Spain   Informed                Not well informed  Informed        
 3 Spain   Well informed           Informed           Informed        
 4 Spain   Not well informed       Not informed       Informed        
 5 Spain   Well informed           Not well informed  Informed        
 6 Spain   Informed                Not well informed  Not well inform~
 7 Spain   Informed                Informed           Informed        
 8 Spain   Not well informed       Not well informed  Informed        
 9 Spain   Not well informed       Informed           Informed        
10 Spain   Informed                Informed           Informed        
# ... with 28,012 more rows, and 5 more variables:
#   informed_international_conflict <chr>,
#   informed_world_hunger <chr>, informed_poverty_causes <chr>,
#   informed_gender_equality <chr>, language_self <chr>
…
