Data Analytics and Computational Social Science: HW_6
…
3.The Maximum amount of fraud transaction across all states is 22768 USD

The Median of the Fraud transactions Amount is 47 USD

5.The Amount Range of the fraud transactions lie between 1 and 22768 USD

Standard Deviation of the Amount of fraud transactions is 156.7456 USD

Finding the Minimum , Maximum and Average of the Amount per state wise

fraudTest %>% 
  group_by(state) %>% 
  summarise(Average=mean(Amount) , lower=min(Amount) , Upper = max(Amount))

# A tibble: 50 x 4
   state Average lower Upper
   <chr>   <dbl> <dbl> <dbl>
 1 AK       78.4     1  1617
 2 AL       64.3     1  5030
 3 AR       76.2     1  8181
 4 AZ       75.8     1  7321
 5 CA       73.3     1 16837
 6 CO       76.0     1  5187
 7 CT       62.6     1  4120
 8 DC       71.7     1  1121
 9 FL       71.4     1 21438
10 GA       69.2     1  7886
# ... with 40 more rows
…
