Data Analytics and Computational Social Science: DACSS_601_FINAL_PROJECT
…
Street : Address of the customer

Zip : Zip code of the customer Billing Address.

Job: Job of the credit card holder

Dob:Date of Birth of the credit card holder

Renaming column names

library(dplyr)
rename(fraudTest ,first_name = first , last_name = last , Date_of_birth = dob , Trans_date = Trans_date_Trans_time) #Renaming column names

# A tibble: 555,719 x 22
   Sr_no Trans_date  cc_num Merchant        Category Amount first_name
   <dbl> <chr>        <dbl> <chr>           <chr>     <dbl> <chr>     
 1     0 6/21/2020  2.29e15 fraud_Kirlin a~ persona~      3 Jeff      
 2     1 6/21/2020  3.57e15 fraud_Sporer-K~ persona~     30 Joanne    
 3     2 6/21/2020  3.6 e15 fraud_Swaniaws~ health_~     41 Ashley    
 4     3 6/21/2020  3.59e15 fraud_Haley Gr~ misc_pos     60 Brian     
 5     4 6/21/2020  3.53e15 fraud_Johnston~ travel        3 Nathan    
 6     5 6/21/2020  3.04e13 fraud_Daughert~ kids_pe~     20 Danielle  
 7     6 6/21/2020  2.13e14 fraud_Romaguer~ health_~    134 Kayla     
 8     7 6/21/2020  3.59e15 fraud_Reichel ~ persona~     10 Paula     
 9     8 6/21/2020  3.6 e15 fraud_Goyette,~ shoppin~      4 David     
10     9 6/21/2020  3.55e15 fraud_Kilback ~ food_di~     67 Kayla     
# ... with 555,709 more rows, and 15 more variables: last_name <chr>,
#   gender <chr>, street <chr>, city <chr>, state <chr>, zip <dbl>,
#   lat <dbl>, long <dbl>, city_pop <dbl>, job <chr>,
#   Date_of_birth <chr>, trans_num <chr>, unix_time <dbl>,
#   merch_lat <dbl>, merch_long <dbl>
…
Above visualization shows the fraud transaction per gender wise .Out of 555719 fraud transaction in the dataset. Female credit card holder effected more with the fraud transactions with the count of 304886 . While there are 250833 fraud transactions which is of male credit card holders.

Number of fraud transactions per State

  select(fraudTest ,state) %>% 
    group_by(state) %>% 
    count()

# A tibble: 50 x 2
# Groups:   state [50]
   state     n
   <chr> <int>
 1 AK      843
 2 AL    17532
 3 AR    13484
 4 AZ     4592
 5 CA    24135
 6 CO     5886
 7 CT     3277
 8 DC     1517
 9 FL    18104
10 GA    11277
# ... with 40 more rows
…
