Data Analytics and Computational Social Science: HW_5
…
Using the count() and arrange() function to see which state consists most number of fraud transactions.

count(fraudTest , state) %>% 
  arrange(desc(n))

# A tibble: 50 x 2
   state     n
   <chr> <int>
 1 TX    40393
 2 NY    35918
 3 PA    34326
 4 CA    24135
 5 OH    20147
 6 MI    19671
 7 IL    18960
 8 FL    18104
 9 AL    17532
10 MO    16501
# ... with 40 more rows

States like TX , NY , PA , CA ,OH have fraud transactions more than 20000 .Three states i.e. HI, AK, RI have least fraud transaction among all the states in the United states.

Finding the Average , Maximum and Minimum amount of fraud transaction per state wise.

fraudTest %>% 
  group_by(state)%>% 
  summarise(Average=mean(Amount) , Upper=max(Amount) , lower=min(Amount))

# A tibble: 50 x 4
   state Average Upper lower
   <chr>   <dbl> <dbl> <dbl>
 1 AK       78.4  1617     1
 2 AL       64.3  5030     1
 3 AR       76.2  8181     1
 4 AZ       75.8  7321     1
 5 CA       73.3 16837     1
 6 CO       76.0  5187     1
 7 CT       62.6  4120     1
 8 DC       71.7  1121     1
 9 FL       71.4 21438     1
10 GA       69.2  7886     1
# ... with 40 more rows
…
